solid patch0
  facet normal 0.0980548 0.995181 -0
    outer loop
       vertex 0 1.01015 -0.136054
       vertex 0 1.01015 0.136054
       vertex 0.197073 0.990736 0.136054
    endloop
  endfacet
  facet normal 0.0980548 0.995181 0
    outer loop
       vertex 0.197073 0.990736 0.136054
       vertex 0.197073 0.990736 -0.136054
       vertex 0 1.01015 -0.136054
    endloop
  endfacet
  facet normal 0.29027 0.956945 -0
    outer loop
       vertex 0.197073 0.990736 -0.136054
       vertex 0.197073 0.990736 0.136054
       vertex 0.386566 0.933257 0.136054
    endloop
  endfacet
  facet normal 0.29027 0.956945 0
    outer loop
       vertex 0.386566 0.933257 0.136054
       vertex 0.386566 0.933257 -0.136054
       vertex 0.197073 0.990736 -0.136054
    endloop
  endfacet
  facet normal 0.471377 0.881932 -0
    outer loop
       vertex 0.386566 0.933257 -0.136054
       vertex 0.386566 0.933257 0.136054
       vertex 0.56121 0.839912 0.136054
    endloop
  endfacet
  facet normal 0.471377 0.881932 0
    outer loop
       vertex 0.56121 0.839912 0.136054
       vertex 0.56121 0.839912 -0.136054
       vertex 0.386566 0.933257 -0.136054
    endloop
  endfacet
  facet normal 0.634363 0.773035 -0
    outer loop
       vertex 0.56121 0.839912 -0.136054
       vertex 0.56121 0.839912 0.136054
       vertex 0.714292 0.714292 0.136054
    endloop
  endfacet
  facet normal 0.634363 0.773035 0
    outer loop
       vertex 0.714292 0.714292 0.136054
       vertex 0.714292 0.714292 -0.136054
       vertex 0.56121 0.839912 -0.136054
    endloop
  endfacet
  facet normal 0.773035 0.634363 -0
    outer loop
       vertex 0.714292 0.714292 -0.136054
       vertex 0.714292 0.714292 0.136054
       vertex 0.839912 0.56121 0.136054
    endloop
  endfacet
  facet normal 0.773035 0.634363 0
    outer loop
       vertex 0.839912 0.56121 0.136054
       vertex 0.839912 0.56121 -0.136054
       vertex 0.714292 0.714292 -0.136054
    endloop
  endfacet
  facet normal 0.881932 0.471377 -0
    outer loop
       vertex 0.839912 0.56121 -0.136054
       vertex 0.839912 0.56121 0.136054
       vertex 0.933257 0.386566 0.136054
    endloop
  endfacet
  facet normal 0.881932 0.471377 0
    outer loop
       vertex 0.933257 0.386566 0.136054
       vertex 0.933257 0.386566 -0.136054
       vertex 0.839912 0.56121 -0.136054
    endloop
  endfacet
  facet normal 0.956945 0.29027 -0
    outer loop
       vertex 0.933257 0.386566 -0.136054
       vertex 0.933257 0.386566 0.136054
       vertex 0.990736 0.197073 0.136054
    endloop
  endfacet
  facet normal 0.956945 0.29027 0
    outer loop
       vertex 0.990736 0.197073 0.136054
       vertex 0.990736 0.197073 -0.136054
       vertex 0.933257 0.386566 -0.136054
    endloop
  endfacet
  facet normal 0.995181 0.0980548 -0
    outer loop
       vertex 0.990736 0.197073 -0.136054
       vertex 0.990736 0.197073 0.136054
       vertex 1.01015 0 0.136054
    endloop
  endfacet
  facet normal 0.995181 0.0980548 0
    outer loop
       vertex 1.01015 0 0.136054
       vertex 1.01015 0 -0.136054
       vertex 0.990736 0.197073 -0.136054
    endloop
  endfacet
  facet normal 0.995181 -0.0980553 0
    outer loop
       vertex 1.01015 0 -0.136054
       vertex 1.01015 0 0.136054
       vertex 0.990736 -0.197072 0.136054
    endloop
  endfacet
  facet normal 0.995181 -0.0980553 0
    outer loop
       vertex 0.990736 -0.197072 0.136054
       vertex 0.990736 -0.197072 -0.136054
       vertex 1.01015 0 -0.136054
    endloop
  endfacet
  facet normal 0.956946 -0.290265 0
    outer loop
       vertex 0.990736 -0.197072 -0.136054
       vertex 0.990736 -0.197072 0.136054
       vertex 0.933257 -0.386569 0.136054
    endloop
  endfacet
  facet normal 0.956946 -0.290265 0
    outer loop
       vertex 0.933257 -0.386569 0.136054
       vertex 0.933257 -0.386569 -0.136054
       vertex 0.990736 -0.197072 -0.136054
    endloop
  endfacet
  facet normal 0.881932 -0.471377 0
    outer loop
       vertex 0.933257 -0.386569 -0.136054
       vertex 0.933257 -0.386569 0.136054
       vertex 0.839912 -0.561213 0.136054
    endloop
  endfacet
  facet normal 0.881932 -0.471377 0
    outer loop
       vertex 0.839912 -0.561213 0.136054
       vertex 0.839912 -0.561213 -0.136054
       vertex 0.933257 -0.386569 -0.136054
    endloop
  endfacet
  facet normal 0.773021 -0.634381 0
    outer loop
       vertex 0.839912 -0.561213 -0.136054
       vertex 0.839912 -0.561213 0.136054
       vertex 0.714292 -0.714287 0.136054
    endloop
  endfacet
  facet normal 0.773021 -0.634381 0
    outer loop
       vertex 0.714292 -0.714287 0.136054
       vertex 0.714292 -0.714287 -0.136054
       vertex 0.839912 -0.561213 -0.136054
    endloop
  endfacet
  facet normal 0.634378 -0.773023 0
    outer loop
       vertex 0.714292 -0.714287 -0.136054
       vertex 0.714292 -0.714287 0.136054
       vertex 0.56121 -0.839913 0.136054
    endloop
  endfacet
  facet normal 0.634378 -0.773023 0
    outer loop
       vertex 0.56121 -0.839913 0.136054
       vertex 0.56121 -0.839913 -0.136054
       vertex 0.714292 -0.714287 -0.136054
    endloop
  endfacet
  facet normal 0.471389 -0.881925 0
    outer loop
       vertex 0.56121 -0.839913 -0.136054
       vertex 0.56121 -0.839913 0.136054
       vertex 0.386566 -0.933261 0.136054
    endloop
  endfacet
  facet normal 0.471389 -0.881925 0
    outer loop
       vertex 0.386566 -0.933261 0.136054
       vertex 0.386566 -0.933261 -0.136054
       vertex 0.56121 -0.839913 -0.136054
    endloop
  endfacet
  facet normal 0.290294 -0.956937 0
    outer loop
       vertex 0.386566 -0.933261 -0.136054
       vertex 0.386566 -0.933261 0.136054
       vertex 0.197073 -0.990745 0.136054
    endloop
  endfacet
  facet normal 0.290294 -0.956937 0
    outer loop
       vertex 0.197073 -0.990745 0.136054
       vertex 0.197073 -0.990745 -0.136054
       vertex 0.386566 -0.933261 -0.136054
    endloop
  endfacet
  facet normal 0.0980189 -0.995185 0
    outer loop
       vertex 0.197073 -0.990745 -0.136054
       vertex 0.197073 -0.990745 0.136054
       vertex 0 -1.01016 0.136054
    endloop
  endfacet
  facet normal 0.0980189 -0.995185 0
    outer loop
       vertex 0 -1.01016 0.136054
       vertex 0 -1.01016 -0.136054
       vertex 0.197073 -0.990745 -0.136054
    endloop
  endfacet
  facet normal -0.0980194 -0.995185 0
    outer loop
       vertex 0 -1.01016 -0.136054
       vertex 0 -1.01016 0.136054
       vertex -0.197072 -0.990745 0.136054
    endloop
  endfacet
  facet normal -0.0980194 -0.995185 -0
    outer loop
       vertex -0.197072 -0.990745 0.136054
       vertex -0.197072 -0.990745 -0.136054
       vertex 0 -1.01016 -0.136054
    endloop
  endfacet
  facet normal -0.290289 -0.956939 0
    outer loop
       vertex -0.197072 -0.990745 -0.136054
       vertex -0.197072 -0.990745 0.136054
       vertex -0.386569 -0.933261 0.136054
    endloop
  endfacet
  facet normal -0.290289 -0.956939 -0
    outer loop
       vertex -0.386569 -0.933261 0.136054
       vertex -0.386569 -0.933261 -0.136054
       vertex -0.197072 -0.990745 -0.136054
    endloop
  endfacet
  facet normal -0.471389 -0.881925 0
    outer loop
       vertex -0.386569 -0.933261 -0.136054
       vertex -0.386569 -0.933261 0.136054
       vertex -0.561213 -0.839913 0.136054
    endloop
  endfacet
  facet normal -0.471389 -0.881925 -0
    outer loop
       vertex -0.561213 -0.839913 0.136054
       vertex -0.561213 -0.839913 -0.136054
       vertex -0.386569 -0.933261 -0.136054
    endloop
  endfacet
  facet normal -0.634396 -0.773008 0
    outer loop
       vertex -0.561213 -0.839913 -0.136054
       vertex -0.561213 -0.839913 0.136054
       vertex -0.714287 -0.714287 0.136054
    endloop
  endfacet
  facet normal -0.634396 -0.773008 -0
    outer loop
       vertex -0.714287 -0.714287 0.136054
       vertex -0.714287 -0.714287 -0.136054
       vertex -0.561213 -0.839913 -0.136054
    endloop
  endfacet
  facet normal -0.773012 -0.634391 0
    outer loop
       vertex -0.714287 -0.714287 -0.136054
       vertex -0.714287 -0.714287 0.136054
       vertex -0.839913 -0.561211 0.136054
    endloop
  endfacet
  facet normal -0.773012 -0.634391 -0
    outer loop
       vertex -0.839913 -0.561211 0.136054
       vertex -0.839913 -0.561211 -0.136054
       vertex -0.714287 -0.714287 -0.136054
    endloop
  endfacet
  facet normal -0.881918 -0.471402 0
    outer loop
       vertex -0.839913 -0.561211 -0.136054
       vertex -0.839913 -0.561211 0.136054
       vertex -0.933263 -0.386569 0.136054
    endloop
  endfacet
  facet normal -0.881918 -0.471402 -0
    outer loop
       vertex -0.933263 -0.386569 0.136054
       vertex -0.933263 -0.386569 -0.136054
       vertex -0.839913 -0.561211 -0.136054
    endloop
  endfacet
  facet normal -0.956942 -0.290281 0
    outer loop
       vertex -0.933263 -0.386569 -0.136054
       vertex -0.933263 -0.386569 0.136054
       vertex -0.990746 -0.19707 0.136054
    endloop
  endfacet
  facet normal -0.956942 -0.290281 -0
    outer loop
       vertex -0.990746 -0.19707 0.136054
       vertex -0.990746 -0.19707 -0.136054
       vertex -0.933263 -0.386569 -0.136054
    endloop
  endfacet
  facet normal -0.995185 -0.0980152 0
    outer loop
       vertex -0.990746 -0.19707 -0.136054
       vertex -0.990746 -0.19707 0.136054
       vertex -1.01016 0 0.136054
    endloop
  endfacet
  facet normal -0.995185 -0.0980152 -0
    outer loop
       vertex -1.01016 0 0.136054
       vertex -1.01016 0 -0.136054
       vertex -0.990746 -0.19707 -0.136054
    endloop
  endfacet
  facet normal -0.995185 0.0980189 0
    outer loop
       vertex -1.01016 0 -0.136054
       vertex -1.01016 0 0.136054
       vertex -0.990745 0.197073 0.136054
    endloop
  endfacet
  facet normal -0.995185 0.0980189 0
    outer loop
       vertex -0.990745 0.197073 0.136054
       vertex -0.990745 0.197073 -0.136054
       vertex -1.01016 0 -0.136054
    endloop
  endfacet
  facet normal -0.956937 0.290294 0
    outer loop
       vertex -0.990745 0.197073 -0.136054
       vertex -0.990745 0.197073 0.136054
       vertex -0.933261 0.386566 0.136054
    endloop
  endfacet
  facet normal -0.956937 0.290294 0
    outer loop
       vertex -0.933261 0.386566 0.136054
       vertex -0.933261 0.386566 -0.136054
       vertex -0.990745 0.197073 -0.136054
    endloop
  endfacet
  facet normal -0.881925 0.471389 0
    outer loop
       vertex -0.933261 0.386566 -0.136054
       vertex -0.933261 0.386566 0.136054
       vertex -0.839913 0.56121 0.136054
    endloop
  endfacet
  facet normal -0.881925 0.471389 0
    outer loop
       vertex -0.839913 0.56121 0.136054
       vertex -0.839913 0.56121 -0.136054
       vertex -0.933261 0.386566 -0.136054
    endloop
  endfacet
  facet normal -0.77302 0.634381 0
    outer loop
       vertex -0.839913 0.56121 -0.136054
       vertex -0.839913 0.56121 0.136054
       vertex -0.714286 0.714292 0.136054
    endloop
  endfacet
  facet normal -0.77302 0.634381 0
    outer loop
       vertex -0.714286 0.714292 0.136054
       vertex -0.714286 0.714292 -0.136054
       vertex -0.839913 0.56121 -0.136054
    endloop
  endfacet
  facet normal -0.634378 0.773023 0
    outer loop
       vertex -0.714286 0.714292 -0.136054
       vertex -0.714286 0.714292 0.136054
       vertex -0.561211 0.839912 0.136054
    endloop
  endfacet
  facet normal -0.634378 0.773023 0
    outer loop
       vertex -0.561211 0.839912 0.136054
       vertex -0.561211 0.839912 -0.136054
       vertex -0.714286 0.714292 -0.136054
    endloop
  endfacet
  facet normal -0.47138 0.88193 0
    outer loop
       vertex -0.561211 0.839912 -0.136054
       vertex -0.561211 0.839912 0.136054
       vertex -0.386568 0.933257 0.136054
    endloop
  endfacet
  facet normal -0.47138 0.88193 0
    outer loop
       vertex -0.386568 0.933257 0.136054
       vertex -0.386568 0.933257 -0.136054
       vertex -0.561211 0.839912 -0.136054
    endloop
  endfacet
  facet normal 0 0 1
    outer loop
       vertex 0.386566 0.933257 0.136054
       vertex 0.197073 0.990736 0.136054
       vertex 0 1.01015 0.136054
    endloop
  endfacet
  facet normal 0 0 1
    outer loop
       vertex 0 1.01015 0.136054
       vertex -0.19707 0.990756 0.136054
       vertex -0.386568 0.933257 0.136054
    endloop
  endfacet
  facet normal 0 0 1
    outer loop
       vertex -0.386568 0.933257 0.136054
       vertex -0.561211 0.839912 0.136054
       vertex -0.714286 0.714292 0.136054
    endloop
  endfacet
  facet normal 0 0 1
    outer loop
       vertex -0.714286 0.714292 0.136054
       vertex -0.839913 0.56121 0.136054
       vertex -0.933261 0.386566 0.136054
    endloop
  endfacet
  facet normal 0 0 1
    outer loop
       vertex -0.933261 0.386566 0.136054
       vertex -0.990745 0.197073 0.136054
       vertex -1.01016 0 0.136054
    endloop
  endfacet
  facet normal 0 0 1
    outer loop
       vertex -1.01016 0 0.136054
       vertex -0.990746 -0.19707 0.136054
       vertex -0.933263 -0.386569 0.136054
    endloop
  endfacet
  facet normal 0 0 1
    outer loop
       vertex -0.933263 -0.386569 0.136054
       vertex -0.839913 -0.561211 0.136054
       vertex -0.714287 -0.714287 0.136054
    endloop
  endfacet
  facet normal 0 0 1
    outer loop
       vertex -0.714287 -0.714287 0.136054
       vertex -0.561213 -0.839913 0.136054
       vertex -0.386569 -0.933261 0.136054
    endloop
  endfacet
  facet normal 0 0 1
    outer loop
       vertex -0.386569 -0.933261 0.136054
       vertex -0.197072 -0.990745 0.136054
       vertex 0 -1.01016 0.136054
    endloop
  endfacet
  facet normal 0 0 1
    outer loop
       vertex 0 -1.01016 0.136054
       vertex 0.197073 -0.990745 0.136054
       vertex 0.386566 -0.933261 0.136054
    endloop
  endfacet
  facet normal 0 0 1
    outer loop
       vertex 0.386566 -0.933261 0.136054
       vertex 0.56121 -0.839913 0.136054
       vertex 0.714292 -0.714287 0.136054
    endloop
  endfacet
  facet normal 0 0 1
    outer loop
       vertex 0.714292 -0.714287 0.136054
       vertex 0.839912 -0.561213 0.136054
       vertex 0.933257 -0.386569 0.136054
    endloop
  endfacet
  facet normal 0 0 1
    outer loop
       vertex 0.933257 -0.386569 0.136054
       vertex 0.990736 -0.197072 0.136054
       vertex 1.01015 0 0.136054
    endloop
  endfacet
  facet normal 0 0 1
    outer loop
       vertex 1.01015 0 0.136054
       vertex 0.990736 0.197073 0.136054
       vertex 0.933257 0.386566 0.136054
    endloop
  endfacet
  facet normal 0 0 1
    outer loop
       vertex 0.933257 0.386566 0.136054
       vertex 0.839912 0.56121 0.136054
       vertex 0.714292 0.714292 0.136054
    endloop
  endfacet
  facet normal 0 0 1
    outer loop
       vertex 0.714292 0.714292 0.136054
       vertex 0.56121 0.839912 0.136054
       vertex 0.386566 0.933257 0.136054
    endloop
  endfacet
  facet normal 0 0 1
    outer loop
       vertex 0.386566 0.933257 0.136054
       vertex 0 1.01015 0.136054
       vertex -0.386568 0.933257 0.136054
    endloop
  endfacet
  facet normal 0 0 1
    outer loop
       vertex -0.386568 0.933257 0.136054
       vertex -0.714286 0.714292 0.136054
       vertex -0.933261 0.386566 0.136054
    endloop
  endfacet
  facet normal 0 0 1
    outer loop
       vertex -0.933261 0.386566 0.136054
       vertex -1.01016 0 0.136054
       vertex -0.933263 -0.386569 0.136054
    endloop
  endfacet
  facet normal 0 0 1
    outer loop
       vertex -0.933263 -0.386569 0.136054
       vertex -0.714287 -0.714287 0.136054
       vertex -0.386569 -0.933261 0.136054
    endloop
  endfacet
  facet normal -0 0 1
    outer loop
       vertex -0.386569 -0.933261 0.136054
       vertex 0 -1.01016 0.136054
       vertex 0.386566 -0.933261 0.136054
    endloop
  endfacet
  facet normal 0 0 1
    outer loop
       vertex 0.386566 -0.933261 0.136054
       vertex 0.714292 -0.714287 0.136054
       vertex 0.933257 -0.386569 0.136054
    endloop
  endfacet
  facet normal 0 0 1
    outer loop
       vertex 0.933257 -0.386569 0.136054
       vertex 1.01015 0 0.136054
       vertex 0.933257 0.386566 0.136054
    endloop
  endfacet
  facet normal 0 0 1
    outer loop
       vertex 0.933257 0.386566 0.136054
       vertex 0.714292 0.714292 0.136054
       vertex 0.386566 0.933257 0.136054
    endloop
  endfacet
  facet normal 0 0 1
    outer loop
       vertex 0.386566 0.933257 0.136054
       vertex -0.386568 0.933257 0.136054
       vertex -0.933261 0.386566 0.136054
    endloop
  endfacet
  facet normal 0 0 1
    outer loop
       vertex -0.933261 0.386566 0.136054
       vertex -0.933263 -0.386569 0.136054
       vertex -0.386569 -0.933261 0.136054
    endloop
  endfacet
  facet normal 0 0 1
    outer loop
       vertex -0.386569 -0.933261 0.136054
       vertex 0.386566 -0.933261 0.136054
       vertex 0.933257 -0.386569 0.136054
    endloop
  endfacet
  facet normal 0 -0 1
    outer loop
       vertex 0.933257 -0.386569 0.136054
       vertex 0.933257 0.386566 0.136054
       vertex 0.386566 0.933257 0.136054
    endloop
  endfacet
  facet normal 0 0 1
    outer loop
       vertex 0.386566 0.933257 0.136054
       vertex -0.933261 0.386566 0.136054
       vertex -0.386569 -0.933261 0.136054
    endloop
  endfacet
  facet normal 0 0 1
    outer loop
       vertex -0.386569 -0.933261 0.136054
       vertex 0.933257 -0.386569 0.136054
       vertex 0.386566 0.933257 0.136054
    endloop
  endfacet
  facet normal -0.290359 0.956918 0
    outer loop
       vertex -0.386568 0.933257 -0.136054
       vertex -0.386568 0.933257 0.136054
       vertex -0.19707 0.990756 0.136054
    endloop
  endfacet
  facet normal -0.290359 0.956918 0
    outer loop
       vertex -0.19707 0.990756 0.136054
       vertex -0.19707 0.990756 -0.136054
       vertex -0.386568 0.933257 -0.136054
    endloop
  endfacet
  facet normal -0.0979531 0.995191 0
    outer loop
       vertex 0 1.01015 0.136054
       vertex 0 1.01015 -0.136054
       vertex -0.19707 0.990756 -0.136054
    endloop
  endfacet
  facet normal -0.0979531 0.995191 0
    outer loop
       vertex -0.19707 0.990756 -0.136054
       vertex -0.19707 0.990756 0.136054
       vertex 0 1.01015 0.136054
    endloop
  endfacet
  facet normal 0 0 -1
    outer loop
       vertex -0.19707 0.990756 -0.136054
       vertex 0 1.01015 -0.136054
       vertex 0.197073 0.990736 -0.136054
    endloop
  endfacet
  facet normal 0 0 -1
    outer loop
       vertex 0.197073 0.990736 -0.136054
       vertex 0.386566 0.933257 -0.136054
       vertex 0.56121 0.839912 -0.136054
    endloop
  endfacet
  facet normal 0 0 -1
    outer loop
       vertex 0.56121 0.839912 -0.136054
       vertex 0.714292 0.714292 -0.136054
       vertex 0.839912 0.56121 -0.136054
    endloop
  endfacet
  facet normal 0 0 -1
    outer loop
       vertex 0.839912 0.56121 -0.136054
       vertex 0.933257 0.386566 -0.136054
       vertex 0.990736 0.197073 -0.136054
    endloop
  endfacet
  facet normal 0 0 -1
    outer loop
       vertex 0.990736 0.197073 -0.136054
       vertex 1.01015 0 -0.136054
       vertex 0.990736 -0.197072 -0.136054
    endloop
  endfacet
  facet normal 0 0 -1
    outer loop
       vertex 0.990736 -0.197072 -0.136054
       vertex 0.933257 -0.386569 -0.136054
       vertex 0.839912 -0.561213 -0.136054
    endloop
  endfacet
  facet normal 0 0 -1
    outer loop
       vertex 0.839912 -0.561213 -0.136054
       vertex 0.714292 -0.714287 -0.136054
       vertex 0.56121 -0.839913 -0.136054
    endloop
  endfacet
  facet normal 0 0 -1
    outer loop
       vertex 0.56121 -0.839913 -0.136054
       vertex 0.386566 -0.933261 -0.136054
       vertex 0.197073 -0.990745 -0.136054
    endloop
  endfacet
  facet normal -0 0 -1
    outer loop
       vertex 0.197073 -0.990745 -0.136054
       vertex 0 -1.01016 -0.136054
       vertex -0.197072 -0.990745 -0.136054
    endloop
  endfacet
  facet normal 0 0 -1
    outer loop
       vertex -0.197072 -0.990745 -0.136054
       vertex -0.386569 -0.933261 -0.136054
       vertex -0.561213 -0.839913 -0.136054
    endloop
  endfacet
  facet normal 0 0 -1
    outer loop
       vertex -0.561213 -0.839913 -0.136054
       vertex -0.714287 -0.714287 -0.136054
       vertex -0.839913 -0.561211 -0.136054
    endloop
  endfacet
  facet normal 0 0 -1
    outer loop
       vertex -0.839913 -0.561211 -0.136054
       vertex -0.933263 -0.386569 -0.136054
       vertex -0.990746 -0.19707 -0.136054
    endloop
  endfacet
  facet normal 0 0 -1
    outer loop
       vertex -0.990746 -0.19707 -0.136054
       vertex -1.01016 0 -0.136054
       vertex -0.990745 0.197073 -0.136054
    endloop
  endfacet
  facet normal 0 0 -1
    outer loop
       vertex -0.990745 0.197073 -0.136054
       vertex -0.933261 0.386566 -0.136054
       vertex -0.839913 0.56121 -0.136054
    endloop
  endfacet
  facet normal 0 0 -1
    outer loop
       vertex -0.839913 0.56121 -0.136054
       vertex -0.714286 0.714292 -0.136054
       vertex -0.561211 0.839912 -0.136054
    endloop
  endfacet
  facet normal 0 0 -1
    outer loop
       vertex -0.561211 0.839912 -0.136054
       vertex -0.386568 0.933257 -0.136054
       vertex -0.19707 0.990756 -0.136054
    endloop
  endfacet
  facet normal 0 0 -1
    outer loop
       vertex -0.19707 0.990756 -0.136054
       vertex 0.197073 0.990736 -0.136054
       vertex 0.56121 0.839912 -0.136054
    endloop
  endfacet
  facet normal 0 0 -1
    outer loop
       vertex 0.56121 0.839912 -0.136054
       vertex 0.839912 0.56121 -0.136054
       vertex 0.990736 0.197073 -0.136054
    endloop
  endfacet
  facet normal 0 -0 -1
    outer loop
       vertex 0.990736 0.197073 -0.136054
       vertex 0.990736 -0.197072 -0.136054
       vertex 0.839912 -0.561213 -0.136054
    endloop
  endfacet
  facet normal 0 0 -1
    outer loop
       vertex 0.839912 -0.561213 -0.136054
       vertex 0.56121 -0.839913 -0.136054
       vertex 0.197073 -0.990745 -0.136054
    endloop
  endfacet
  facet normal 0 0 -1
    outer loop
       vertex 0.197073 -0.990745 -0.136054
       vertex -0.197072 -0.990745 -0.136054
       vertex -0.561213 -0.839913 -0.136054
    endloop
  endfacet
  facet normal 0 0 -1
    outer loop
       vertex -0.561213 -0.839913 -0.136054
       vertex -0.839913 -0.561211 -0.136054
       vertex -0.990746 -0.19707 -0.136054
    endloop
  endfacet
  facet normal 0 0 -1
    outer loop
       vertex -0.990746 -0.19707 -0.136054
       vertex -0.990745 0.197073 -0.136054
       vertex -0.839913 0.56121 -0.136054
    endloop
  endfacet
  facet normal 0 0 -1
    outer loop
       vertex -0.839913 0.56121 -0.136054
       vertex -0.561211 0.839912 -0.136054
       vertex -0.19707 0.990756 -0.136054
    endloop
  endfacet
  facet normal 0 0 -1
    outer loop
       vertex -0.19707 0.990756 -0.136054
       vertex 0.56121 0.839912 -0.136054
       vertex 0.990736 0.197073 -0.136054
    endloop
  endfacet
  facet normal 0 0 -1
    outer loop
       vertex 0.990736 0.197073 -0.136054
       vertex 0.839912 -0.561213 -0.136054
       vertex 0.197073 -0.990745 -0.136054
    endloop
  endfacet
  facet normal 0 0 -1
    outer loop
       vertex 0.197073 -0.990745 -0.136054
       vertex -0.561213 -0.839913 -0.136054
       vertex -0.990746 -0.19707 -0.136054
    endloop
  endfacet
  facet normal 0 0 -1
    outer loop
       vertex -0.990746 -0.19707 -0.136054
       vertex -0.839913 0.56121 -0.136054
       vertex -0.19707 0.990756 -0.136054
    endloop
  endfacet
  facet normal 0 0 -1
    outer loop
       vertex -0.19707 0.990756 -0.136054
       vertex 0.990736 0.197073 -0.136054
       vertex 0.197073 -0.990745 -0.136054
    endloop
  endfacet
  facet normal 0 0 -1
    outer loop
       vertex 0.197073 -0.990745 -0.136054
       vertex -0.990746 -0.19707 -0.136054
       vertex -0.19707 0.990756 -0.136054
    endloop
  endfacet
endsolid patch0
